5	35000000	10.069393	29.584721	0.340358
10	11000000	10.843193	16.883129	0.642250
20	1700000		10.524781	7.400452	1.422181
50	120000		10.290270	3.924384	2.622136
100	15000		10.320525	3.086927	3.343301
200	1800		10.266982	2.865903	3.582459
500	115			10.167241	2.799435	3.631890