Tue May 24 15:40:43 YEKT 2016
n3203.nodes
n3205.nodes
Time of running: 14.677657
Length of matrix: 10000-1000
Number of process: 16
Matrix A norm: 912.794541
Matrix B norm: 288.738380
Matrix C norm: 8332.033176
