Tue May 24 15:51:44 YEKT 2016
n3106.nodes
n3113.nodes
n3208.nodes
n3211.nodes
n3213.nodes
n3214.nodes
n3403.nodes
n3407.nodes
Time of running: 10.565767
Length of matrix: 14000-1400
Number of process: 64
Matrix A norm: 1277.912474
Matrix B norm: 404.211017
Matrix C norm: 13802.721895
